(footprint "SJ-4351" (version 20211014) (generator pcbnew)
  (layer "F.Cu")
  (tedit 5E248582)
  (attr through_hole)
  (fp_text reference "REF**" (at 6.477 -5.842) (layer "F.SilkS")
    (effects (font (size 1 1) (thickness 0.15)))
    (tstamp 7d91cf8f-15a1-4c2d-a1ab-2b1a0b3326e5)
  )
  (fp_text value "SJ-4351" (at 7.62 6.35) (layer "F.Fab")
    (effects (font (size 1 1) (thickness 0.15)))
    (tstamp 104f739f-1156-4832-84a8-443d155d111a)
  )
  (fp_text user "${REFERENCE}" (at 5.9 -2.1) (layer "F.Fab")
    (effects (font (size 1 1) (thickness 0.15)))
    (tstamp c1560820-3c1b-4ced-ad8a-1e62ae54f3bf)
  )
  (fp_line (start 11.1 -4.9) (end 11.1 -3.06832) (layer "F.SilkS") (width 0.2) (tstamp 18ad7282-56dc-41c8-8f45-e7b5c4307a13))
  (fp_line (start 11.1 3.07848) (end 11.1 5.3) (layer "F.SilkS") (width 0.2) (tstamp 19da198b-4a68-4388-9449-8b18f766d107))
  (fp_line (start 1.59004 5.3) (end 0 5.3) (layer "F.SilkS") (width 0.2) (tstamp 1d177ac1-712d-406c-8549-382b4a61208b))
  (fp_line (start 0 -2.25) (end 1.3 -2.25) (layer "F.SilkS") (width 0.2) (tstamp 34e41f35-7545-4f1a-8fb0-63e57b3abf99))
  (fp_line (start 0 -4.9) (end 0 -2.25) (layer "F.SilkS") (width 0.2) (tstamp 3a2c958d-7de0-47a9-a851-0ba12b7f918c))
  (fp_line (start 1.3 -2.25) (end 1.3 2.25) (layer "F.SilkS") (width 0.2) (tstamp 69ffe98b-6d70-4991-bdde-90ce18659bec))
  (fp_line (start 4.38912 -4.9) (end 11.1 -4.9) (layer "F.SilkS") (width 0.2) (tstamp 779d6971-323b-4790-b105-fbbb82a0b6ea))
  (fp_line (start 11.1 5.3) (end 4.23672 5.3) (layer "F.SilkS") (width 0.2) (tstamp 7de9e503-ef79-4e1b-8577-de97a826558f))
  (fp_line (start 1.3 2.25) (end 0 2.25) (layer "F.SilkS") (width 0.2) (tstamp 9386a877-7e78-4a40-964b-c10bc71e6a97))
  (fp_line (start 1.41732 -4.9) (end 0 -4.9) (layer "F.SilkS") (width 0.2) (tstamp b5315b56-fe9e-45d8-b13b-72a7aa327eb2))
  (fp_line (start 0 2.25) (end 0 5.3) (layer "F.SilkS") (width 0.2) (tstamp f4b19e96-c653-4685-9c86-034b9927bb91))
  (fp_line (start 11.1 -0.16764) (end 11.1 0.2032) (layer "F.SilkS") (width 0.2) (tstamp fd869977-3741-498c-9fc2-97726c70209a))
  (fp_line (start 0.1 -2.4) (end -2.5 -2.4) (layer "F.Fab") (width 0.1) (tstamp 437e85ba-ae7f-4ed0-9fc9-8ac0e7991c2d))
  (fp_line (start 0.1 -4.8) (end 0.1 -2.4) (layer "F.Fab") (width 0.1) (tstamp 73b5980f-8a25-4a38-a8fd-f93f5ecd76d5))
  (fp_line (start 0.1 2.4) (end -2.5 2.4) (layer "F.Fab") (width 0.1) (tstamp 7a22ad88-63d0-458c-afa6-39cb58a2150b))
  (fp_line (start 11 5.2) (end 11 -4.8) (layer "F.Fab") (width 0.1) (tstamp 88476138-3ded-4644-b39d-e4e08664e937))
  (fp_line (start 0.1 5.2) (end 11 5.2) (layer "F.Fab") (width 0.1) (tstamp b8235476-60af-4673-8d03-b630041e1638))
  (fp_line (start -2.5 -2.4) (end -2.5 2.4) (layer "F.Fab") (width 0.1) (tstamp c9783b85-23c1-4b42-b714-6d6d23077d37))
  (fp_line (start 0.1 2.4) (end 0.1 5.2) (layer "F.Fab") (width 0.1) (tstamp d08843b9-8d80-4cce-a479-77fce9daf120))
  (fp_line (start 11 -4.8) (end 0.1 -4.8) (layer "F.Fab") (width 0.1) (tstamp de680cd2-d6ab-4800-82a2-20a4dd19e1e8))
  (pad "" np_thru_hole circle (at 2.9 0) (size 1.1 1.1) (drill 1.1) (layers *.Cu *.Mask) (tstamp 6b0a1a47-3ccb-495e-87b2-a8b10343dc6c))
  (pad "" np_thru_hole circle (at 7.9 0) (size 1.1 1.1) (drill 1.1) (layers *.Cu *.Mask) (tstamp d9c13232-650b-4fb7-a96b-3edc29613751))
  (pad "R1" thru_hole circle (at 11 -1.6) (size 2.1 2.1) (drill 1.1) (layers *.Cu *.Mask) (tstamp e710a727-f75a-4126-9931-646ba46d7cb6))
  (pad "R2" thru_hole circle (at 2.9 4.5) (size 2.1 2.1) (drill 1.1) (layers *.Cu *.Mask) (tstamp ebd9e0ad-df50-4b74-bedd-37587913175a))
  (pad "S" thru_hole circle (at 2.9 -4.8) (size 2.1 2.1) (drill 1.1) (layers *.Cu *.Mask) (tstamp 10215a8b-2bcb-4376-9734-85e036c3a052))
  (pad "T" thru_hole circle (at 7.9 3.6) (size 2.1 2.1) (drill 1.1) (layers *.Cu *.Mask) (tstamp 5e5e7bd6-4f6b-4e92-8a64-fd75eff590f0))
  (pad "TN" thru_hole circle (at 11 1.6) (size 2.1 2.1) (drill 1.1) (layers *.Cu *.Mask) (tstamp a0d4d928-1ff2-48e8-9a4f-906f3f212e84))
)
