G04 #@! TF.GenerationSoftware,KiCad,Pcbnew,5.1.5+dfsg1-2*
G04 #@! TF.CreationDate,2020-01-29T22:38:16+01:00*
G04 #@! TF.ProjectId,amp,616d702e-6b69-4636-9164-5f7063625858,rev?*
G04 #@! TF.SameCoordinates,Original*
G04 #@! TF.FileFunction,Soldermask,Bot*
G04 #@! TF.FilePolarity,Negative*
%FSLAX46Y46*%
G04 Gerber Fmt 4.6, Leading zero omitted, Abs format (unit mm)*
G04 Created by KiCad (PCBNEW 5.1.5+dfsg1-2) date 2020-01-29 22:38:16*
%MOMM*%
%LPD*%
G04 APERTURE LIST*
%ADD10C,0.100000*%
G04 APERTURE END LIST*
D10*
G36*
X121537256Y-131779698D02*
G01*
X121643579Y-131800847D01*
X121944042Y-131925303D01*
X122214451Y-132105985D01*
X122444415Y-132335949D01*
X122625097Y-132606358D01*
X122749553Y-132906821D01*
X122813000Y-133225791D01*
X122813000Y-133551009D01*
X122749553Y-133869979D01*
X122625097Y-134170442D01*
X122444415Y-134440851D01*
X122214451Y-134670815D01*
X121944042Y-134851497D01*
X121643579Y-134975953D01*
X121537256Y-134997102D01*
X121324611Y-135039400D01*
X120999389Y-135039400D01*
X120786744Y-134997102D01*
X120680421Y-134975953D01*
X120379958Y-134851497D01*
X120109549Y-134670815D01*
X119879585Y-134440851D01*
X119698903Y-134170442D01*
X119574447Y-133869979D01*
X119511000Y-133551009D01*
X119511000Y-133225791D01*
X119574447Y-132906821D01*
X119698903Y-132606358D01*
X119879585Y-132335949D01*
X120109549Y-132105985D01*
X120379958Y-131925303D01*
X120680421Y-131800847D01*
X120786744Y-131779698D01*
X120999389Y-131737400D01*
X121324611Y-131737400D01*
X121537256Y-131779698D01*
G37*
G36*
X58537256Y-131779698D02*
G01*
X58643579Y-131800847D01*
X58944042Y-131925303D01*
X59214451Y-132105985D01*
X59444415Y-132335949D01*
X59625097Y-132606358D01*
X59749553Y-132906821D01*
X59813000Y-133225791D01*
X59813000Y-133551009D01*
X59749553Y-133869979D01*
X59625097Y-134170442D01*
X59444415Y-134440851D01*
X59214451Y-134670815D01*
X58944042Y-134851497D01*
X58643579Y-134975953D01*
X58537256Y-134997102D01*
X58324611Y-135039400D01*
X57999389Y-135039400D01*
X57786744Y-134997102D01*
X57680421Y-134975953D01*
X57379958Y-134851497D01*
X57109549Y-134670815D01*
X56879585Y-134440851D01*
X56698903Y-134170442D01*
X56574447Y-133869979D01*
X56511000Y-133551009D01*
X56511000Y-133225791D01*
X56574447Y-132906821D01*
X56698903Y-132606358D01*
X56879585Y-132335949D01*
X57109549Y-132105985D01*
X57379958Y-131925303D01*
X57680421Y-131800847D01*
X57786744Y-131779698D01*
X57999389Y-131737400D01*
X58324611Y-131737400D01*
X58537256Y-131779698D01*
G37*
G36*
X99095000Y-134051000D02*
G01*
X96993000Y-134051000D01*
X96993000Y-131949000D01*
X99095000Y-131949000D01*
X99095000Y-134051000D01*
G37*
G36*
X83360564Y-131989389D02*
G01*
X83551833Y-132068615D01*
X83551835Y-132068616D01*
X83723973Y-132183635D01*
X83870365Y-132330027D01*
X83985385Y-132502167D01*
X84064611Y-132693436D01*
X84105000Y-132896484D01*
X84105000Y-133103516D01*
X84064611Y-133306564D01*
X83985385Y-133497833D01*
X83985384Y-133497835D01*
X83870365Y-133669973D01*
X83723973Y-133816365D01*
X83551835Y-133931384D01*
X83551834Y-133931385D01*
X83551833Y-133931385D01*
X83360564Y-134010611D01*
X83157516Y-134051000D01*
X82950484Y-134051000D01*
X82747436Y-134010611D01*
X82556167Y-133931385D01*
X82556166Y-133931385D01*
X82556165Y-133931384D01*
X82384027Y-133816365D01*
X82237635Y-133669973D01*
X82122616Y-133497835D01*
X82122615Y-133497833D01*
X82043389Y-133306564D01*
X82003000Y-133103516D01*
X82003000Y-132896484D01*
X82043389Y-132693436D01*
X82122615Y-132502167D01*
X82237635Y-132330027D01*
X82384027Y-132183635D01*
X82556165Y-132068616D01*
X82556167Y-132068615D01*
X82747436Y-131989389D01*
X82950484Y-131949000D01*
X83157516Y-131949000D01*
X83360564Y-131989389D01*
G37*
G36*
X57724794Y-124370155D02*
G01*
X57831150Y-124391311D01*
X57886995Y-124414443D01*
X58031520Y-124474307D01*
X58211844Y-124594795D01*
X58365205Y-124748156D01*
X58485693Y-124928480D01*
X58568689Y-125128851D01*
X58611000Y-125341560D01*
X58611000Y-125558440D01*
X58568689Y-125771149D01*
X58485693Y-125971520D01*
X58365205Y-126151844D01*
X58211844Y-126305205D01*
X58031520Y-126425693D01*
X57831150Y-126508689D01*
X57724795Y-126529844D01*
X57618440Y-126551000D01*
X57401560Y-126551000D01*
X57295205Y-126529844D01*
X57188850Y-126508689D01*
X56988480Y-126425693D01*
X56808156Y-126305205D01*
X56654795Y-126151844D01*
X56534307Y-125971520D01*
X56451311Y-125771149D01*
X56409000Y-125558440D01*
X56409000Y-125341560D01*
X56451311Y-125128851D01*
X56534307Y-124928480D01*
X56654795Y-124748156D01*
X56808156Y-124594795D01*
X56988480Y-124474307D01*
X57133005Y-124414443D01*
X57188850Y-124391311D01*
X57295206Y-124370155D01*
X57401560Y-124349000D01*
X57618440Y-124349000D01*
X57724794Y-124370155D01*
G37*
G36*
X119107442Y-122683518D02*
G01*
X119173627Y-122690037D01*
X119343466Y-122741557D01*
X119499991Y-122825222D01*
X119535729Y-122854552D01*
X119637186Y-122937814D01*
X119720448Y-123039271D01*
X119749778Y-123075009D01*
X119833443Y-123231534D01*
X119884963Y-123401373D01*
X119902359Y-123578000D01*
X119884963Y-123754627D01*
X119833443Y-123924466D01*
X119749778Y-124080991D01*
X119720448Y-124116729D01*
X119637186Y-124218186D01*
X119535729Y-124301448D01*
X119499991Y-124330778D01*
X119343466Y-124414443D01*
X119173627Y-124465963D01*
X119107443Y-124472481D01*
X119041260Y-124479000D01*
X118702740Y-124479000D01*
X118636557Y-124472481D01*
X118570373Y-124465963D01*
X118400534Y-124414443D01*
X118244009Y-124330778D01*
X118208271Y-124301448D01*
X118106814Y-124218186D01*
X118023552Y-124116729D01*
X117994222Y-124080991D01*
X117910557Y-123924466D01*
X117859037Y-123754627D01*
X117841641Y-123578000D01*
X117859037Y-123401373D01*
X117910557Y-123231534D01*
X117994222Y-123075009D01*
X118023552Y-123039271D01*
X118106814Y-122937814D01*
X118208271Y-122854552D01*
X118244009Y-122825222D01*
X118400534Y-122741557D01*
X118570373Y-122690037D01*
X118636558Y-122683518D01*
X118702740Y-122677000D01*
X119041260Y-122677000D01*
X119107442Y-122683518D01*
G37*
G36*
X65824794Y-121170155D02*
G01*
X65931150Y-121191311D01*
X66019493Y-121227904D01*
X66131520Y-121274307D01*
X66311844Y-121394795D01*
X66465205Y-121548156D01*
X66585693Y-121728480D01*
X66668689Y-121928851D01*
X66711000Y-122141560D01*
X66711000Y-122358440D01*
X66668689Y-122571149D01*
X66585693Y-122771520D01*
X66465205Y-122951844D01*
X66311844Y-123105205D01*
X66131520Y-123225693D01*
X66031334Y-123267191D01*
X65931150Y-123308689D01*
X65824795Y-123329844D01*
X65718440Y-123351000D01*
X65501560Y-123351000D01*
X65395205Y-123329844D01*
X65288850Y-123308689D01*
X65188666Y-123267191D01*
X65088480Y-123225693D01*
X64908156Y-123105205D01*
X64754795Y-122951844D01*
X64634307Y-122771520D01*
X64551311Y-122571149D01*
X64509000Y-122358440D01*
X64509000Y-122141560D01*
X64551311Y-121928851D01*
X64634307Y-121728480D01*
X64754795Y-121548156D01*
X64908156Y-121394795D01*
X65088480Y-121274307D01*
X65200507Y-121227904D01*
X65288850Y-121191311D01*
X65395206Y-121170155D01*
X65501560Y-121149000D01*
X65718440Y-121149000D01*
X65824794Y-121170155D01*
G37*
G36*
X119103935Y-120183173D02*
G01*
X119173627Y-120190037D01*
X119343466Y-120241557D01*
X119499991Y-120325222D01*
X119535729Y-120354552D01*
X119637186Y-120437814D01*
X119720448Y-120539271D01*
X119749778Y-120575009D01*
X119749779Y-120575011D01*
X119821503Y-120709195D01*
X119833443Y-120731534D01*
X119884963Y-120901373D01*
X119902359Y-121078000D01*
X119884963Y-121254627D01*
X119833443Y-121424466D01*
X119749778Y-121580991D01*
X119720448Y-121616729D01*
X119637186Y-121718186D01*
X119535729Y-121801448D01*
X119499991Y-121830778D01*
X119343466Y-121914443D01*
X119173627Y-121965963D01*
X119107442Y-121972482D01*
X119041260Y-121979000D01*
X118702740Y-121979000D01*
X118636558Y-121972482D01*
X118570373Y-121965963D01*
X118400534Y-121914443D01*
X118244009Y-121830778D01*
X118208271Y-121801448D01*
X118106814Y-121718186D01*
X118023552Y-121616729D01*
X117994222Y-121580991D01*
X117910557Y-121424466D01*
X117859037Y-121254627D01*
X117841641Y-121078000D01*
X117859037Y-120901373D01*
X117910557Y-120731534D01*
X117922498Y-120709195D01*
X117994221Y-120575011D01*
X117994222Y-120575009D01*
X118023552Y-120539271D01*
X118106814Y-120437814D01*
X118208271Y-120354552D01*
X118244009Y-120325222D01*
X118400534Y-120241557D01*
X118570373Y-120190037D01*
X118640065Y-120183173D01*
X118702740Y-120177000D01*
X119041260Y-120177000D01*
X119103935Y-120183173D01*
G37*
G36*
X62646601Y-120064397D02*
G01*
X62685305Y-120072096D01*
X62717340Y-120085365D01*
X62794680Y-120117400D01*
X62893115Y-120183173D01*
X62976827Y-120266885D01*
X63042600Y-120365320D01*
X63087904Y-120474696D01*
X63111000Y-120590805D01*
X63111000Y-120709195D01*
X63087904Y-120825304D01*
X63042600Y-120934680D01*
X62976827Y-121033115D01*
X62893115Y-121116827D01*
X62794680Y-121182600D01*
X62717340Y-121214635D01*
X62685305Y-121227904D01*
X62646601Y-121235603D01*
X62569195Y-121251000D01*
X62450805Y-121251000D01*
X62373399Y-121235603D01*
X62334695Y-121227904D01*
X62302660Y-121214635D01*
X62225320Y-121182600D01*
X62126885Y-121116827D01*
X62043173Y-121033115D01*
X61977400Y-120934680D01*
X61932096Y-120825304D01*
X61909000Y-120709195D01*
X61909000Y-120590805D01*
X61932096Y-120474696D01*
X61977400Y-120365320D01*
X62043173Y-120266885D01*
X62126885Y-120183173D01*
X62225320Y-120117400D01*
X62302660Y-120085365D01*
X62334695Y-120072096D01*
X62373399Y-120064397D01*
X62450805Y-120049000D01*
X62569195Y-120049000D01*
X62646601Y-120064397D01*
G37*
G36*
X57646601Y-120064397D02*
G01*
X57685305Y-120072096D01*
X57717340Y-120085365D01*
X57794680Y-120117400D01*
X57893115Y-120183173D01*
X57976827Y-120266885D01*
X58042600Y-120365320D01*
X58087904Y-120474696D01*
X58111000Y-120590805D01*
X58111000Y-120709195D01*
X58087904Y-120825304D01*
X58042600Y-120934680D01*
X57976827Y-121033115D01*
X57893115Y-121116827D01*
X57794680Y-121182600D01*
X57717340Y-121214635D01*
X57685305Y-121227904D01*
X57646601Y-121235603D01*
X57569195Y-121251000D01*
X57450805Y-121251000D01*
X57373399Y-121235603D01*
X57334695Y-121227904D01*
X57302660Y-121214635D01*
X57225320Y-121182600D01*
X57126885Y-121116827D01*
X57043173Y-121033115D01*
X56977400Y-120934680D01*
X56932096Y-120825304D01*
X56909000Y-120709195D01*
X56909000Y-120590805D01*
X56932096Y-120474696D01*
X56977400Y-120365320D01*
X57043173Y-120266885D01*
X57126885Y-120183173D01*
X57225320Y-120117400D01*
X57302660Y-120085365D01*
X57334695Y-120072096D01*
X57373399Y-120064397D01*
X57450805Y-120049000D01*
X57569195Y-120049000D01*
X57646601Y-120064397D01*
G37*
G36*
X65824795Y-117970156D02*
G01*
X65931150Y-117991311D01*
X66014155Y-118025693D01*
X66131520Y-118074307D01*
X66311844Y-118194795D01*
X66465205Y-118348156D01*
X66585693Y-118528480D01*
X66585693Y-118528481D01*
X66668689Y-118728850D01*
X66711000Y-118941561D01*
X66711000Y-119158439D01*
X66676720Y-119330778D01*
X66668689Y-119371149D01*
X66585693Y-119571520D01*
X66465205Y-119751844D01*
X66311844Y-119905205D01*
X66131520Y-120025693D01*
X66031334Y-120067191D01*
X65931150Y-120108689D01*
X65824794Y-120129845D01*
X65718440Y-120151000D01*
X65501560Y-120151000D01*
X65395206Y-120129845D01*
X65288850Y-120108689D01*
X65188666Y-120067191D01*
X65088480Y-120025693D01*
X64908156Y-119905205D01*
X64754795Y-119751844D01*
X64634307Y-119571520D01*
X64551311Y-119371149D01*
X64543281Y-119330778D01*
X64509000Y-119158439D01*
X64509000Y-118941561D01*
X64551311Y-118728850D01*
X64634307Y-118528481D01*
X64634307Y-118528480D01*
X64754795Y-118348156D01*
X64908156Y-118194795D01*
X65088480Y-118074307D01*
X65205845Y-118025693D01*
X65288850Y-117991311D01*
X65395205Y-117970156D01*
X65501560Y-117949000D01*
X65718440Y-117949000D01*
X65824795Y-117970156D01*
G37*
G36*
X119107442Y-117683518D02*
G01*
X119173627Y-117690037D01*
X119343466Y-117741557D01*
X119343468Y-117741558D01*
X119362715Y-117751846D01*
X119499991Y-117825222D01*
X119535729Y-117854552D01*
X119637186Y-117937814D01*
X119709305Y-118025693D01*
X119749778Y-118075009D01*
X119833443Y-118231534D01*
X119884963Y-118401373D01*
X119902359Y-118578000D01*
X119884963Y-118754627D01*
X119833443Y-118924466D01*
X119833442Y-118924468D01*
X119791610Y-119002729D01*
X119749778Y-119080991D01*
X119720448Y-119116729D01*
X119637186Y-119218186D01*
X119535729Y-119301448D01*
X119499991Y-119330778D01*
X119343466Y-119414443D01*
X119173627Y-119465963D01*
X119107442Y-119472482D01*
X119041260Y-119479000D01*
X118702740Y-119479000D01*
X118636558Y-119472482D01*
X118570373Y-119465963D01*
X118400534Y-119414443D01*
X118244009Y-119330778D01*
X118208271Y-119301448D01*
X118106814Y-119218186D01*
X118023552Y-119116729D01*
X117994222Y-119080991D01*
X117952390Y-119002729D01*
X117910558Y-118924468D01*
X117910557Y-118924466D01*
X117859037Y-118754627D01*
X117841641Y-118578000D01*
X117859037Y-118401373D01*
X117910557Y-118231534D01*
X117994222Y-118075009D01*
X118034695Y-118025693D01*
X118106814Y-117937814D01*
X118208271Y-117854552D01*
X118244009Y-117825222D01*
X118381285Y-117751846D01*
X118400532Y-117741558D01*
X118400534Y-117741557D01*
X118570373Y-117690037D01*
X118636558Y-117683518D01*
X118702740Y-117677000D01*
X119041260Y-117677000D01*
X119107442Y-117683518D01*
G37*
G36*
X62724795Y-115970156D02*
G01*
X62831150Y-115991311D01*
X63031520Y-116074307D01*
X63211844Y-116194795D01*
X63365205Y-116348156D01*
X63485693Y-116528480D01*
X63485693Y-116528481D01*
X63544942Y-116671519D01*
X63568689Y-116728851D01*
X63611000Y-116941560D01*
X63611000Y-117158440D01*
X63568689Y-117371149D01*
X63485693Y-117571520D01*
X63365205Y-117751844D01*
X63211844Y-117905205D01*
X63031520Y-118025693D01*
X62931334Y-118067191D01*
X62831150Y-118108689D01*
X62724794Y-118129845D01*
X62618440Y-118151000D01*
X62401560Y-118151000D01*
X62295206Y-118129845D01*
X62188850Y-118108689D01*
X62088666Y-118067191D01*
X61988480Y-118025693D01*
X61808156Y-117905205D01*
X61654795Y-117751844D01*
X61534307Y-117571520D01*
X61451311Y-117371149D01*
X61409000Y-117158440D01*
X61409000Y-116941560D01*
X61451311Y-116728851D01*
X61475059Y-116671519D01*
X61534307Y-116528481D01*
X61534307Y-116528480D01*
X61654795Y-116348156D01*
X61808156Y-116194795D01*
X61988480Y-116074307D01*
X62188850Y-115991311D01*
X62295205Y-115970156D01*
X62401560Y-115949000D01*
X62618440Y-115949000D01*
X62724795Y-115970156D01*
G37*
G36*
X57724794Y-115070155D02*
G01*
X57831150Y-115091311D01*
X58031520Y-115174307D01*
X58211844Y-115294795D01*
X58365205Y-115448156D01*
X58485693Y-115628480D01*
X58485693Y-115628481D01*
X58568689Y-115828850D01*
X58611000Y-116041561D01*
X58611000Y-116258439D01*
X58568689Y-116471150D01*
X58527191Y-116571334D01*
X58485693Y-116671520D01*
X58365205Y-116851844D01*
X58211844Y-117005205D01*
X58031520Y-117125693D01*
X57952464Y-117158439D01*
X57831150Y-117208689D01*
X57724795Y-117229844D01*
X57618440Y-117251000D01*
X57401560Y-117251000D01*
X57295205Y-117229844D01*
X57188850Y-117208689D01*
X57067536Y-117158439D01*
X56988480Y-117125693D01*
X56808156Y-117005205D01*
X56654795Y-116851844D01*
X56534307Y-116671520D01*
X56451311Y-116471150D01*
X56409000Y-116258439D01*
X56409000Y-116041561D01*
X56451311Y-115828850D01*
X56534307Y-115628481D01*
X56534307Y-115628480D01*
X56654795Y-115448156D01*
X56808156Y-115294795D01*
X56988480Y-115174307D01*
X57188850Y-115091311D01*
X57295206Y-115070155D01*
X57401560Y-115049000D01*
X57618440Y-115049000D01*
X57724794Y-115070155D01*
G37*
G36*
X119755600Y-115180989D02*
G01*
X119788652Y-115191015D01*
X119819103Y-115207292D01*
X119845799Y-115229201D01*
X119867708Y-115255897D01*
X119883985Y-115286348D01*
X119894011Y-115319400D01*
X119898000Y-115359903D01*
X119898000Y-116796097D01*
X119894011Y-116836600D01*
X119883985Y-116869652D01*
X119867708Y-116900103D01*
X119845799Y-116926799D01*
X119819103Y-116948708D01*
X119788652Y-116964985D01*
X119755600Y-116975011D01*
X119715097Y-116979000D01*
X118028903Y-116979000D01*
X117988400Y-116975011D01*
X117955348Y-116964985D01*
X117924897Y-116948708D01*
X117898201Y-116926799D01*
X117876292Y-116900103D01*
X117860015Y-116869652D01*
X117849989Y-116836600D01*
X117846000Y-116796097D01*
X117846000Y-115359903D01*
X117849989Y-115319400D01*
X117860015Y-115286348D01*
X117876292Y-115255897D01*
X117898201Y-115229201D01*
X117924897Y-115207292D01*
X117955348Y-115191015D01*
X117988400Y-115180989D01*
X118028903Y-115177000D01*
X119715097Y-115177000D01*
X119755600Y-115180989D01*
G37*
G36*
X59994281Y-107761295D02*
G01*
X60030316Y-107772227D01*
X60063524Y-107789977D01*
X60092634Y-107813866D01*
X60116523Y-107842976D01*
X60134273Y-107876184D01*
X60145205Y-107912219D01*
X60149500Y-107955831D01*
X60149500Y-108960169D01*
X60145205Y-109003781D01*
X60134273Y-109039816D01*
X60116523Y-109073024D01*
X60092634Y-109102134D01*
X60063524Y-109126023D01*
X60030316Y-109143773D01*
X59994281Y-109154705D01*
X59950669Y-109159000D01*
X58921331Y-109159000D01*
X58877719Y-109154705D01*
X58841684Y-109143773D01*
X58808476Y-109126023D01*
X58779366Y-109102134D01*
X58755477Y-109073024D01*
X58737727Y-109039816D01*
X58726795Y-109003781D01*
X58722500Y-108960169D01*
X58722500Y-107955831D01*
X58726795Y-107912219D01*
X58737727Y-107876184D01*
X58755477Y-107842976D01*
X58779366Y-107813866D01*
X58808476Y-107789977D01*
X58841684Y-107772227D01*
X58877719Y-107761295D01*
X58921331Y-107757000D01*
X59950669Y-107757000D01*
X59994281Y-107761295D01*
G37*
G36*
X61919281Y-107761295D02*
G01*
X61955316Y-107772227D01*
X61988524Y-107789977D01*
X62017634Y-107813866D01*
X62041523Y-107842976D01*
X62059273Y-107876184D01*
X62070205Y-107912219D01*
X62074500Y-107955831D01*
X62074500Y-108960169D01*
X62070205Y-109003781D01*
X62059273Y-109039816D01*
X62041523Y-109073024D01*
X62017634Y-109102134D01*
X61988524Y-109126023D01*
X61955316Y-109143773D01*
X61919281Y-109154705D01*
X61875669Y-109159000D01*
X60846331Y-109159000D01*
X60802719Y-109154705D01*
X60766684Y-109143773D01*
X60733476Y-109126023D01*
X60704366Y-109102134D01*
X60680477Y-109073024D01*
X60662727Y-109039816D01*
X60651795Y-109003781D01*
X60647500Y-108960169D01*
X60647500Y-107955831D01*
X60651795Y-107912219D01*
X60662727Y-107876184D01*
X60680477Y-107842976D01*
X60704366Y-107813866D01*
X60733476Y-107789977D01*
X60766684Y-107772227D01*
X60802719Y-107761295D01*
X60846331Y-107757000D01*
X61875669Y-107757000D01*
X61919281Y-107761295D01*
G37*
G36*
X98540162Y-104199368D02*
G01*
X98849724Y-104327593D01*
X98849725Y-104327594D01*
X99128324Y-104513747D01*
X99365253Y-104750676D01*
X99489637Y-104936830D01*
X99551407Y-105029276D01*
X99679632Y-105338838D01*
X99745000Y-105667465D01*
X99745000Y-106002535D01*
X99679632Y-106331162D01*
X99551407Y-106640724D01*
X99551406Y-106640725D01*
X99365253Y-106919324D01*
X99128324Y-107156253D01*
X98942170Y-107280637D01*
X98849724Y-107342407D01*
X98540162Y-107470632D01*
X98211535Y-107536000D01*
X97876465Y-107536000D01*
X97547838Y-107470632D01*
X97238276Y-107342407D01*
X97145830Y-107280637D01*
X96959676Y-107156253D01*
X96722747Y-106919324D01*
X96536594Y-106640725D01*
X96536593Y-106640724D01*
X96408368Y-106331162D01*
X96343000Y-106002535D01*
X96343000Y-105667465D01*
X96408368Y-105338838D01*
X96536593Y-105029276D01*
X96598363Y-104936830D01*
X96722747Y-104750676D01*
X96959676Y-104513747D01*
X97238275Y-104327594D01*
X97238276Y-104327593D01*
X97547838Y-104199368D01*
X97876465Y-104134000D01*
X98211535Y-104134000D01*
X98540162Y-104199368D01*
G37*
G36*
X83550162Y-104199368D02*
G01*
X83859724Y-104327593D01*
X83859725Y-104327594D01*
X84138324Y-104513747D01*
X84375253Y-104750676D01*
X84499637Y-104936830D01*
X84561407Y-105029276D01*
X84689632Y-105338838D01*
X84755000Y-105667465D01*
X84755000Y-106002535D01*
X84689632Y-106331162D01*
X84561407Y-106640724D01*
X84561406Y-106640725D01*
X84375253Y-106919324D01*
X84138324Y-107156253D01*
X83952170Y-107280637D01*
X83859724Y-107342407D01*
X83550162Y-107470632D01*
X83221535Y-107536000D01*
X82886465Y-107536000D01*
X82557838Y-107470632D01*
X82248276Y-107342407D01*
X82155830Y-107280637D01*
X81969676Y-107156253D01*
X81732747Y-106919324D01*
X81546594Y-106640725D01*
X81546593Y-106640724D01*
X81418368Y-106331162D01*
X81353000Y-106002535D01*
X81353000Y-105667465D01*
X81418368Y-105338838D01*
X81546593Y-105029276D01*
X81608363Y-104936830D01*
X81732747Y-104750676D01*
X81969676Y-104513747D01*
X82248275Y-104327594D01*
X82248276Y-104327593D01*
X82557838Y-104199368D01*
X82886465Y-104134000D01*
X83221535Y-104134000D01*
X83550162Y-104199368D01*
G37*
G36*
X121537256Y-98479698D02*
G01*
X121643579Y-98500847D01*
X121944042Y-98625303D01*
X122214451Y-98805985D01*
X122444415Y-99035949D01*
X122625097Y-99306358D01*
X122749553Y-99606821D01*
X122813000Y-99925791D01*
X122813000Y-100251009D01*
X122749553Y-100569979D01*
X122625097Y-100870442D01*
X122444415Y-101140851D01*
X122214451Y-101370815D01*
X121944042Y-101551497D01*
X121643579Y-101675953D01*
X121537256Y-101697102D01*
X121324611Y-101739400D01*
X120999389Y-101739400D01*
X120786744Y-101697102D01*
X120680421Y-101675953D01*
X120379958Y-101551497D01*
X120109549Y-101370815D01*
X119879585Y-101140851D01*
X119698903Y-100870442D01*
X119574447Y-100569979D01*
X119511000Y-100251009D01*
X119511000Y-99925791D01*
X119574447Y-99606821D01*
X119698903Y-99306358D01*
X119879585Y-99035949D01*
X120109549Y-98805985D01*
X120379958Y-98625303D01*
X120680421Y-98500847D01*
X120786744Y-98479698D01*
X120999389Y-98437400D01*
X121324611Y-98437400D01*
X121537256Y-98479698D01*
G37*
G36*
X58537256Y-98479698D02*
G01*
X58643579Y-98500847D01*
X58944042Y-98625303D01*
X59214451Y-98805985D01*
X59444415Y-99035949D01*
X59625097Y-99306358D01*
X59749553Y-99606821D01*
X59813000Y-99925791D01*
X59813000Y-100251009D01*
X59749553Y-100569979D01*
X59625097Y-100870442D01*
X59444415Y-101140851D01*
X59214451Y-101370815D01*
X58944042Y-101551497D01*
X58643579Y-101675953D01*
X58537256Y-101697102D01*
X58324611Y-101739400D01*
X57999389Y-101739400D01*
X57786744Y-101697102D01*
X57680421Y-101675953D01*
X57379958Y-101551497D01*
X57109549Y-101370815D01*
X56879585Y-101140851D01*
X56698903Y-100870442D01*
X56574447Y-100569979D01*
X56511000Y-100251009D01*
X56511000Y-99925791D01*
X56574447Y-99606821D01*
X56698903Y-99306358D01*
X56879585Y-99035949D01*
X57109549Y-98805985D01*
X57379958Y-98625303D01*
X57680421Y-98500847D01*
X57786744Y-98479698D01*
X57999389Y-98437400D01*
X58324611Y-98437400D01*
X58537256Y-98479698D01*
G37*
M02*
